com/storageapp/StorageApp.class
com/storageapp/model/Storage.class
com/storageapp/repository/ParentRepository.class
com/storageapp/repository/StorageRepository.class
com/storageapp/repository/JdbcParentRepository.class
com/storageapp/repository/JdbcUserRepository.class
com/storageapp/repository/JdbcItemRepository.class
com/storageapp/model/Item.class
com/storageapp/controller/UserController.class
com/storageapp/repository/JdbcStorageRepository.class
com/storageapp/repository/ItemRepository.class
com/storageapp/model/User.class
com/storageapp/model/Parent.class
com/storageapp/repository/UserRepository.class
com/storageapp/model/Account.class
